a4/cpu_tb.vcd
$date
	Sat Oct  9 08:46:33 2021
$end
$version
	Icarus Verilog
$end
$timescale
	1ps
$end
$scope module cpu_tb $end
$var wire 32 ! idata [31:0] $end
$var wire 32 " iaddr [31:0] $end
$var wire 4 # dwe [3:0] $end
$var wire 32 $ dwdata [31:0] $end
$var wire 32 % drdata [31:0] $end
$var wire 32 & daddr [31:0] $end
$var reg 1 ' clk $end
$var reg 32 ( dtmp [31:0] $end
$var reg 32 ) exp_reg [31:0] $end
$var reg 1 * reset $end
$var integer 32 + exp_file [31:0] $end
$var integer 32 , fail [31:0] $end
$var integer 32 - i [31:0] $end
$var integer 32 . log_file [31:0] $end
$var integer 32 / s [31:0] $end
$scope module u1 $end
$var wire 1 ' clk $end
$var wire 1 * reset $end
$var wire 32 0 x9 [31:0] $end
$var wire 32 1 x8 [31:0] $end
$var wire 32 2 x7 [31:0] $end
$var wire 32 3 x6 [31:0] $end
$var wire 32 4 x5 [31:0] $end
$var wire 32 5 x4 [31:0] $end
$var wire 32 6 x31 [31:0] $end
$var wire 32 7 x30 [31:0] $end
$var wire 32 8 x3 [31:0] $end
$var wire 32 9 x29 [31:0] $end
$var wire 32 : x28 [31:0] $end
$var wire 32 ; x27 [31:0] $end
$var wire 32 < x26 [31:0] $end
$var wire 32 = x25 [31:0] $end
$var wire 32 > x24 [31:0] $end
$var wire 32 ? x23 [31:0] $end
$var wire 32 @ x22 [31:0] $end
$var wire 32 A x21 [31:0] $end
$var wire 32 B x20 [31:0] $end
$var wire 32 C x2 [31:0] $end
$var wire 32 D x19 [31:0] $end
$var wire 32 E x18 [31:0] $end
$var wire 32 F x17 [31:0] $end
$var wire 32 G x16 [31:0] $end
$var wire 32 H x15 [31:0] $end
$var wire 32 I x14 [31:0] $end
$var wire 32 J x13 [31:0] $end
$var wire 32 K x12 [31:0] $end
$var wire 32 L x11 [31:0] $end
$var wire 32 M x10 [31:0] $end
$var wire 32 N x1 [31:0] $end
$var wire 32 O x0 [31:0] $end
$var wire 1 P take_branch_wire $end
$var wire 5 Q shamt_wire [4:0] $end
$var wire 5 R rs2_wire [4:0] $end
$var wire 5 S rs1_wire [4:0] $end
$var wire 4 T rf_we_wire [3:0] $end
$var wire 4 U rf_we_checked_wire [3:0] $end
$var wire 32 V rf_op3_wire [31:0] $end
$var wire 32 W rf_op2_wire [31:0] $end
$var wire 32 X rf_op1_wire [31:0] $end
$var wire 5 Y rd_wire [4:0] $end
$var wire 32 Z pc_plus_4_wire [31:0] $end
$var wire 32 [ next_address_wire [31:0] $end
$var wire 32 \ next_addr_branch_wire [31:0] $end
$var wire 2 ] mux2_sel_wire [1:0] $end
$var wire 32 ^ mux2_output_wire [31:0] $end
$var wire 1 _ mux1_sel_wire $end
$var wire 32 ` mux1_output_wire [31:0] $end
$var wire 1 a l_unsign_flag_wire $end
$var wire 1 b jal_wire $end
$var wire 1 c is_conditional_branch_type_wire $end
$var wire 1 d is_branch_type_wire $end
$var wire 32 e imm20_ext_wire [31:0] $end
$var wire 32 f imm12_ext_wire [31:0] $end
$var wire 32 g idata [31:0] $end
$var wire 4 h dwe_wire [3:0] $end
$var wire 4 i dwe_checked_wire [3:0] $end
$var wire 32 j dwdata_checked_wire [31:0] $end
$var wire 32 k drdata_checked_wire [31:0] $end
$var wire 32 l drdata [31:0] $end
$var wire 32 m branch_condition_wire [31:0] $end
$var wire 1 n auipc_wire $end
$var wire 32 o alu_out_wire [31:0] $end
$var wire 4 p alu_op_wire [3:0] $end
$var reg 1 q clkreset_flag $end
$var reg 32 r daddr [31:0] $end
$var reg 32 s dwdata [31:0] $end
$var reg 4 t dwe [3:0] $end
$var reg 32 u iaddr [31:0] $end
$var integer 32 v count [31:0] $end
$scope module ALU $end
$var wire 32 w operand2 [31:0] $end
$var wire 32 x operand1 [31:0] $end
$var wire 4 y alu_op [3:0] $end
$var reg 32 z alu_out [31:0] $end
$upscope $end
$scope module Bcontrol $end
$var wire 32 { alu_out [31:0] $end
$var wire 32 | input_iaddr [31:0] $end
$var wire 1 b jal $end
$var wire 1 c is_conditional_branch_type $end
$var wire 1 d is_branch_type $end
$var wire 32 } input_imm12_ext [31:0] $end
$var wire 32 ~ branch_condition [31:0] $end
$var wire 1 n auipc $end
$var reg 32 !" next_addr_branch [31:0] $end
$var reg 1 P take_branch $end
$upscope $end
$scope module CONT $end
$var wire 1 q clkreset_flag $end
$var wire 32 "" iaddr [31:0] $end
$var wire 1 * reset $end
$var wire 7 #" opcode [6:0] $end
$var wire 32 $" idata [31:0] $end
$var reg 4 %" alu_op [3:0] $end
$var reg 1 n auipc $end
$var reg 32 &" branch_condition [31:0] $end
$var reg 4 '" dwe [3:0] $end
$var reg 32 (" imm12_ext [31:0] $end
$var reg 32 )" imm20_ext [31:0] $end
$var reg 1 d is_branch_type $end
$var reg 1 c is_conditional_branch_type $end
$var reg 1 b jal $end
$var reg 1 a l_unsign_flag $end
$var reg 1 _ mux1_sel $end
$var reg 2 *" mux2_sel [1:0] $end
$var reg 5 +" rd [4:0] $end
$var reg 4 ," rf_we [3:0] $end
$var reg 5 -" rs1 [4:0] $end
$var reg 5 ." rs2 [4:0] $end
$var reg 5 /" shamt [4:0] $end
$upscope $end
$scope module Dcheck $end
$var wire 32 0" daddr [31:0] $end
$var wire 4 1" dwe [3:0] $end
$var wire 7 2" opcode [6:0] $end
$var wire 4 3" rf_we [3:0] $end
$var wire 32 4" dwdata [31:0] $end
$var wire 32 5" drdata [31:0] $end
$var reg 32 6" drdata_checked [31:0] $end
$var reg 32 7" dwdata_checked [31:0] $end
$var reg 4 8" dwe_checked [3:0] $end
$var reg 4 9" rf_we_checked [3:0] $end
$upscope $end
$scope module MUX2 $end
$var wire 32 :" input0 [31:0] $end
$var wire 32 ;" input1 [31:0] $end
$var wire 32 <" input3 [31:0] $end
$var wire 2 =" mux_sel [1:0] $end
$var wire 32 >" input2 [31:0] $end
$var reg 32 ?" mux_out [31:0] $end
$upscope $end
$scope module MUX_ALU_input_select $end
$var wire 1 _ mux_sel $end
$var wire 32 @" input1 [31:0] $end
$var wire 32 A" input0 [31:0] $end
$var reg 32 B" mux_output [31:0] $end
$upscope $end
$scope module PC4 $end
$var wire 32 C" input_iaddr [31:0] $end
$var wire 32 D" out_pc_plus4 [31:0] $end
$upscope $end
$scope module RF $end
$var wire 1 ' clk $end
$var wire 1 q clkreset_flag $end
$var wire 32 E" imm12_ext [31:0] $end
$var wire 32 F" imm20_ext [31:0] $end
$var wire 6 G" itype_flag [5:0] $end
$var wire 1 a l_unsign_flag $end
$var wire 5 H" rd [4:0] $end
$var wire 1 * reset $end
$var wire 32 I" rf_wdata [31:0] $end
$var wire 4 J" rf_we [3:0] $end
$var wire 5 K" rs1 [4:0] $end
$var wire 5 L" rs2 [4:0] $end
$var reg 32 M" rf_op1 [31:0] $end
$var reg 32 N" rf_op2 [31:0] $end
$var reg 32 O" rf_op3 [31:0] $end
$var reg 32 P" x0 [31:0] $end
$var reg 32 Q" x1 [31:0] $end
$var reg 32 R" x10 [31:0] $end
$var reg 32 S" x11 [31:0] $end
$var reg 32 T" x12 [31:0] $end
$var reg 32 U" x13 [31:0] $end
$var reg 32 V" x14 [31:0] $end
$var reg 32 W" x15 [31:0] $end
$var reg 32 X" x16 [31:0] $end
$var reg 32 Y" x17 [31:0] $end
$var reg 32 Z" x18 [31:0] $end
$var reg 32 [" x19 [31:0] $end
$var reg 32 \" x2 [31:0] $end
$var reg 32 ]" x20 [31:0] $end
$var reg 32 ^" x21 [31:0] $end
$var reg 32 _" x22 [31:0] $end
$var reg 32 `" x23 [31:0] $end
$var reg 32 a" x24 [31:0] $end
$var reg 32 b" x25 [31:0] $end
$var reg 32 c" x26 [31:0] $end
$var reg 32 d" x27 [31:0] $end
$var reg 32 e" x28 [31:0] $end
$var reg 32 f" x29 [31:0] $end
$var reg 32 g" x3 [31:0] $end
$var reg 32 h" x30 [31:0] $end
$var reg 32 i" x31 [31:0] $end
$var reg 32 j" x4 [31:0] $end
$var reg 32 k" x5 [31:0] $end
$var reg 32 l" x6 [31:0] $end
$var reg 32 m" x7 [31:0] $end
$var reg 32 n" x8 [31:0] $end
$var reg 32 o" x9 [31:0] $end
$var integer 32 p" i [31:0] $end
$upscope $end
$scope module mux_branch $end
$var wire 32 q" input0 [31:0] $end
$var wire 32 r" input1 [31:0] $end
$var wire 1 P mux_sel $end
$var reg 32 s" mux_output [31:0] $end
$upscope $end
$upscope $end
$scope module u2 $end
$var wire 32 t" iaddr [31:0] $end
$var wire 32 u" idata [31:0] $end
$upscope $end
$scope module u3 $end
$var wire 1 ' clk $end
$var wire 32 v" daddr [31:0] $end
$var wire 32 w" dwdata [31:0] $end
$var wire 4 x" dwe [3:0] $end
$var wire 32 y" drdata [31:0] $end
$var wire 30 z" a [29:0] $end
$upscope $end
$upscope $end
$enddefinitions $end
#0
$dumpvars
b0 z"
b0 y"
b0 x"
b0 w"
b0 v"
b111110110011 u"
b0 t"
b100 s"
b0 r"
b100 q"
b100000 p"
bx o"
bx n"
bx m"
bx l"
bx k"
bx j"
bx i"
bx h"
bx g"
bx f"
bx e"
bx d"
bx c"
bx b"
bx a"
bx `"
bx _"
bx ^"
bx ]"
bx \"
bx ["
bx Z"
bx Y"
bx X"
bx W"
bx V"
bx U"
bx T"
bx S"
bx R"
bx Q"
bx P"
b0 O"
bx N"
bx M"
b0 L"
b0 K"
b0 J"
b0 I"
b0 H"
bz G"
b0 F"
b0 E"
b100 D"
b0 C"
bx B"
bx A"
b0 @"
b0 ?"
b100 >"
b0 ="
b0 <"
b0 ;"
b0 :"
b0 9"
b0 8"
bx 7"
b0 6"
b0 5"
bx 4"
b0 3"
b110011 2"
b0 1"
b0 0"
b0 /"
b0 ."
b0 -"
b0 ,"
b0 +"
b0 *"
b0 )"
b0 ("
b0 '"
b0 &"
b1111 %"
b111110110011 $"
b110011 #"
bz ""
b0 !"
b0 ~
b0 }
b0 |
b0 {
b0 z
b1111 y
bx x
bx w
b0 v
b0 u
b0 t
b0 s
b0 r
1q
b1111 p
b0 o
0n
b0 m
b0 l
b0 k
bx j
b0 i
b0 h
b111110110011 g
b0 f
b0 e
0d
0c
0b
0a
bx `
0_
b0 ^
b0 ]
b0 \
b100 [
b100 Z
b0 Y
bx X
bx W
b0 V
b0 U
b0 T
b0 S
b0 R
b0 Q
0P
bx O
bx N
bx M
bx L
bx K
bx J
bx I
bx H
bx G
bx F
bx E
bx D
bx C
bx B
bx A
bx @
bx ?
bx >
bx =
bx <
bx ;
bx :
bx 9
bx 8
bx 7
bx 6
bx 5
bx 4
bx 3
bx 2
bx 1
bx 0
bx /
bx .
bx -
bx ,
bx +
1*
bx )
bx (
1'
b0 &
b0 %
b0 $
b0 #
b0 "
b111110110011 !
$end
#5000
0'
#10000
1'
#15000
0'
#20000
1'
#25000
0'
#30000
1'
#35000
0'
#40000
1'
#45000
0'
#50000
1'
#55000
0'
#60000
1'
#65000
0'
#70000
1'
#75000
0'
#80000
1'
#85000
0'
#90000
1'
#95000
0'
#100000
b1111 U
b1111 9"
b1111 J"
b1111 T
b1111 ,"
b1111 3"
b0 p
b0 y
b0 %"
b11111 Y
b11111 +"
b11111 H"
0q
b0 j
b0 7"
b0 `
b0 w
b0 B"
b0 -
b0 W
b0 4"
b0 A"
b0 N"
b0 X
b0 x
b0 M"
b0 6
b0 i"
b0 7
b0 h"
b0 9
b0 f"
b0 :
b0 e"
b0 ;
b0 d"
b0 <
b0 c"
b0 =
b0 b"
b0 >
b0 a"
b0 ?
b0 `"
b0 @
b0 _"
b0 A
b0 ^"
b0 B
b0 ]"
b0 D
b0 ["
b0 E
b0 Z"
b0 F
b0 Y"
b0 G
b0 X"
b0 H
b0 W"
b0 I
b0 V"
b0 J
b0 U"
b0 K
b0 T"
b0 L
b0 S"
b0 M
b0 R"
b0 0
b0 o"
b0 1
b0 n"
b0 2
b0 m"
b0 3
b0 l"
b0 4
b0 k"
b0 5
b0 j"
b0 8
b0 g"
b0 C
b0 \"
b0 N
b0 Q"
b0 O
b0 P"
1'
b10000000000000000000000000000100 +
b10000000000000000000000000000011 .
0*
#105000
0'
#110000
bx k
bx 6"
bx ;"
bx %
bx l
bx 5"
bx y"
b101000000000000 z"
b10100000000000000 ^
b10100000000000000 ?"
b10100000000000000 I"
b10100000000000000 &
b10100000000000000 r
b10100000000000000 v"
b10100000000000000 o
b10100000000000000 z
b10100000000000000 {
b10100000000000000 0"
b10100000000000000 :"
b10100000000000000 `
b10100000000000000 w
b10100000000000000 B"
b10100000000000000 V
b10100000000000000 @"
b10100000000000000 O"
1_
b10100000000000000 f
b10100000000000000 }
b10100000000000000 ("
b10100000000000000 E"
b110111 #"
b110111 2"
b0 p
b0 y
b0 %"
b1111 T
b1111 ,"
b1111 3"
b1 Y
b1 +"
b1 H"
b0 S
b0 -"
b0 K"
b1000 [
b1000 s"
b10100000010110111 !
b10100000010110111 g
b10100000010110111 $"
b10100000010110111 u"
b1000 Z
b1000 >"
b1000 D"
b1000 q"
b100 "
b100 u
b100 |
b100 C"
b100 t"
b1 -
1'
#115000
0'
#120000
b0 k
b0 6"
b0 ;"
b0 %
b0 l
b0 5"
b0 y"
b101 z"
b10100 ^
b10100 ?"
b10100 I"
b10100 &
b10100 r
b10100 v"
b10100 o
b10100 z
b10100 {
b10100 0"
b10100 :"
b10100 `
b10100 w
b10100 B"
b1111 T
b1111 ,"
b1111 3"
b10100 R
b10100 ."
b10100 L"
b10100 V
b10100 @"
b10100 O"
b10011 #"
b10011 2"
b10100 f
b10100 }
b10100 ("
b10100 E"
b10 Y
b10 +"
b10 H"
b10100000000000000 N
b10100000000000000 Q"
b1100 [
b1100 s"
b1010000000000000100010011 !
b1010000000000000100010011 g
b1010000000000000100010011 $"
b1010000000000000100010011 u"
b1100 Z
b1100 >"
b1100 D"
b1100 q"
b1000 "
b1000 u
b1000 |
b1000 C"
b1000 t"
b10 -
1'
#125000
0'
#130000
b0 z"
b0 ^
b0 ?"
b0 I"
b0 U
b0 9"
b0 J"
0P
b0 \
b0 !"
b0 <"
b0 r"
b10100000000000000 $
b10100000000000000 s
b10100000000000000 w"
b0 &
b0 r
b0 v"
b10100000000000000 `
b10100000000000000 w
b10100000000000000 B"
b0 o
b0 z
b0 {
b0 0"
b0 :"
b1 m
b1 ~
b1 &"
b1010 p
b1010 y
b1010 %"
0_
1c
1d
b10100000000000000 j
b10100000000000000 7"
b10110 V
b10110 @"
b10110 O"
b10100000000000000 W
b10100000000000000 4"
b10100000000000000 A"
b10100000000000000 N"
b10100 X
b10100 x
b10100 M"
b1100011 #"
b1100011 2"
b10110 f
b10110 }
b10110 ("
b10110 E"
b0 T
b0 ,"
b0 3"
b1 R
b1 ."
b1 L"
b1100 Y
b1100 +"
b1100 H"
b10 S
b10 -"
b10 K"
b10000 [
b10000 s"
b10000100010000011001100011 !
b10000100010000011001100011 g
b10000100010000011001100011 $"
b10000100010000011001100011 u"
b10100 C
b10100 \"
b10000 Z
b10000 >"
b10000 D"
b10000 q"
b1100 "
b1100 u
b1100 |
b1100 C"
b1100 t"
b11 -
1'
#135000
0'
#140000
bx k
bx 6"
bx ;"
bx %
bx l
bx 5"
bx y"
b1000000000000 z"
b100000000010000 ^
b100000000010000 ?"
b100000000010000 I"
b1111 U
b1111 9"
b1111 J"
b100000000010000 \
b100000000010000 !"
b100000000010000 <"
b100000000010000 r"
b0 $
b0 s
b0 w"
b100000000000000 &
b100000000000000 r
b100000000000000 v"
b100000000000000 `
b100000000000000 w
b100000000000000 B"
1n
0c
0d
b1111 T
b1111 ,"
b1111 3"
b11 ]
b11 *"
b11 ="
1_
b11 Y
b11 +"
b11 H"
b0 j
b0 7"
b100000000000000 o
b100000000000000 z
b100000000000000 {
b100000000000000 0"
b100000000000000 :"
b100000000000000 V
b100000000000000 @"
b100000000000000 O"
b0 W
b0 4"
b0 A"
b0 N"
b0 X
b0 x
b0 M"
b10111 #"
b10111 2"
b0 m
b0 ~
b0 &"
b0 p
b0 y
b0 %"
b100000000000000 f
b100000000000000 }
b100000000000000 ("
b100000000000000 E"
b0 R
b0 ."
b0 L"
b0 S
b0 -"
b0 K"
b10100 [
b10100 s"
b100000110010111 !
b100000110010111 g
b100000110010111 $"
b100000110010111 u"
b10100 Z
b10100 >"
b10100 D"
b10100 q"
b10000 "
b10000 u
b10000 |
b10000 C"
b10000 t"
b100 -
1'
#145000
0'
#150000
b0 k
b0 6"
b0 ;"
b0 %
b0 l
b0 5"
b0 y"
b0 z"
b10100000000000000 $
b10100000000000000 s
b10100000000000000 w"
b0 &
b0 r
b0 v"
b0 o
b0 z
b0 {
b0 0"
b0 :"
b0 U
b0 9"
b0 J"
b10100000000000000 j
b10100000000000000 7"
b10100000000000000 W
b10100000000000000 4"
b10100000000000000 A"
b10100000000000000 N"
b100000000010000 X
b100000000010000 x
b100000000010000 M"
b10100000000000000 `
b10100000000000000 w
b10100000000000000 B"
b1 m
b1 ~
b1 &"
b1010 p
b1010 y
b1010 %"
0n
b0 ]
b0 *"
b0 ="
0_
1c
1d
b0 T
b0 ,"
b0 3"
b1 R
b1 ."
b1 L"
b11 S
b11 -"
b11 K"
b10010 V
b10010 @"
b10010 O"
b0 ^
b0 ?"
b0 I"
b1100011 #"
b1100011 2"
b10010 f
b10010 }
b10010 ("
b10010 E"
b100 Y
b100 +"
b100 H"
b0 \
b0 !"
b0 <"
b0 r"
b11000 [
b11000 s"
b10000100011000001001100011 !
b10000100011000001001100011 g
b10000100011000001001100011 $"
b10000100011000001001100011 u"
b100000000010000 8
b100000000010000 g"
b11000 Z
b11000 >"
b11000 D"
b11000 q"
b10100 "
b10100 u
b10100 |
b10100 C"
b10100 t"
b101 -
1'
#155000
0'
#160000
b1111 U
b1111 9"
b1111 J"
b11100 ^
b11100 ?"
b11100 I"
1P
b100000 \
b100000 !"
b100000 <"
b100000 r"
b0 $
b0 s
b0 w"
b0 `
b0 w
b0 B"
0c
0d
b1111 T
b1111 ,"
b1111 3"
b10 ]
b10 *"
b10 ="
1b
b0 j
b0 7"
b100 V
b100 @"
b100 O"
b0 W
b0 4"
b0 A"
b0 N"
b0 X
b0 x
b0 M"
b1101111 #"
b1101111 2"
b0 m
b0 ~
b0 &"
b1100 p
b1100 y
b1100 %"
b100 f
b100 }
b100 ("
b100 E"
b0 R
b0 ."
b0 L"
b0 S
b0 -"
b0 K"
b100000 [
b100000 s"
b100000000000001001101111 !
b100000000000001001101111 g
b100000000000001001101111 $"
b100000000000001001101111 u"
b11100 Z
b11100 >"
b11100 D"
b11100 q"
b11000 "
b11000 u
b11000 |
b11000 C"
b11000 t"
b110 -
1'
#165000
0'
#170000
b111 z"
b11100 &
b11100 r
b11100 v"
b11100 o
b11100 z
b11100 {
b11100 0"
b11100 :"
0P
b11100 `
b11100 w
b11100 B"
b0 p
b0 y
b0 %"
0b
b0 ]
b0 *"
b0 ="
1_
b1111 T
b1111 ,"
b1111 3"
b11100 R
b11100 ."
b11100 L"
b11100 V
b11100 @"
b11100 O"
b100100 [
b100100 s"
b10011 #"
b10011 2"
b101 Y
b101 +"
b101 H"
b11100 f
b11100 }
b11100 ("
b11100 E"
b0 \
b0 !"
b0 <"
b0 r"
b11100 ^
b11100 ?"
b11100 I"
b1110000000000001010010011 !
b1110000000000001010010011 g
b1110000000000001010010011 $"
b1110000000000001010010011 u"
b11100 5
b11100 j"
b100100 Z
b100100 >"
b100100 D"
b100100 q"
b100000 "
b100000 u
b100000 |
b100000 C"
b100000 t"
b111 -
1'
#175000
0'
#180000
b0 k
b0 6"
b0 ;"
b0 %
b0 l
b0 5"
b0 y"
b0 z"
b1010 V
b1010 @"
b1010 O"
b0 U
b0 9"
b0 J"
b1 ^
b1 ?"
b1 I"
b11100 $
b11100 s
b11100 w"
b1 &
b1 r
b1 v"
1c
1d
b1010 f
b1010 }
b1010 ("
b1010 E"
b1 o
b1 z
b1 {
b1 0"
b1 :"
b11100 j
b11100 7"
b11100 W
b11100 4"
b11100 A"
b11100 N"
b11100 X
b11100 x
b11100 M"
b1100011 #"
b1100011 2"
0_
b101 Q
b101 /"
b1010 p
b1010 y
b1010 %"
b0 T
b0 ,"
b0 3"
b101 R
b101 ."
b101 L"
b10100 Y
b10100 +"
b10100 H"
b100 S
b100 -"
b100 K"
b11100 4
b11100 k"
b101000 [
b101000 s"
b10100100001101001100011 !
b10100100001101001100011 g
b10100100001101001100011 $"
b10100100001101001100011 u"
b101000 Z
b101000 >"
b101000 D"
b101000 q"
b100100 "
b100100 u
b100100 |
b100100 C"
b100100 t"
b1000 -
1'
#185000
0'
#190000
b1100 z"
b1111 U
b1111 9"
b1111 J"
b0 $
b0 s
b0 w"
b110000 &
b110000 r
b110000 v"
b101100 ^
b101100 ?"
b101100 I"
b110001 `
b110001 w
b110001 B"
0c
b10 ]
b10 *"
b10 ="
1_
b1111 T
b1111 ,"
b1111 3"
b110 Y
b110 +"
b110 H"
b0 j
b0 7"
b110000 o
b110000 z
b110000 {
b110000 0"
b110000 :"
1P
b110000 \
b110000 !"
b110000 <"
b110000 r"
b110001 V
b110001 @"
b110001 O"
b0 W
b0 4"
b0 A"
b0 N"
b0 X
b0 x
b0 M"
b1100111 #"
b1100111 2"
b0 m
b0 ~
b0 &"
b1011 p
b1011 y
b1011 %"
b110001 f
b110001 }
b110001 ("
b110001 E"
b10001 R
b10001 ."
b10001 L"
b0 S
b0 -"
b0 K"
b110000 [
b110000 s"
b11000100000000001101100111 !
b11000100000000001101100111 g
b11000100000000001101100111 $"
b11000100000000001101100111 u"
b101100 Z
b101100 >"
b101100 D"
b101100 q"
b101000 "
b101000 u
b101000 |
b101000 C"
b101000 t"
b1001 -
1'
#195000
0'
#200000
b1011 z"
b101100 &
b101100 r
b101100 v"
b110100 [
b110100 s"
b101100 o
b101100 z
b101100 {
b101100 0"
b101100 :"
0P
b0 \
b0 !"
b0 <"
b0 r"
b101100 `
b101100 w
b101100 B"
b0 p
b0 y
b0 %"
0d
b0 ]
b0 *"
b0 ="
b1111 T
b1111 ,"
b1111 3"
b1100 R
b1100 ."
b1100 L"
b101100 V
b101100 @"
b101100 O"
b10011 #"
b10011 2"
b101100 f
b101100 }
b101100 ("
b101100 E"
b111 Y
b111 +"
b111 H"
b101100 3
b101100 l"
b101100 ^
b101100 ?"
b101100 I"
b10110000000000001110010011 !
b10110000000000001110010011 g
b10110000000000001110010011 $"
b10110000000000001110010011 u"
b110100 Z
b110100 >"
b110100 D"
b110100 q"
b110000 "
b110000 u
b110000 |
b110000 C"
b110000 t"
b1010 -
1'
#205000
0'
#210000
b0 z"
b1 ^
b1 ?"
b1 I"
b0 U
b0 9"
b0 J"
1P
b111100 \
b111100 !"
b111100 <"
b111100 r"
b101100 $
b101100 s
b101100 w"
b1 &
b1 r
b1 v"
b1 o
b1 z
b1 {
b1 0"
b1 :"
b1 m
b1 ~
b1 &"
b1010 p
b1010 y
b1010 %"
0_
1c
1d
b101100 j
b101100 7"
b100 V
b100 @"
b100 O"
b101100 W
b101100 4"
b101100 A"
b101100 N"
b101100 X
b101100 x
b101100 M"
b1100011 #"
b1100011 2"
b100 f
b100 }
b100 ("
b100 E"
b0 T
b0 ,"
b0 3"
b110 R
b110 ."
b110 L"
b1000 Y
b1000 +"
b1000 H"
b111 S
b111 -"
b111 K"
b111100 [
b111100 s"
b11000111000010001100011 !
b11000111000010001100011 g
b11000111000010001100011 $"
b11000111000010001100011 u"
b101100 2
b101100 m"
b111000 Z
b111000 >"
b111000 D"
b111000 q"
b110100 "
b110100 u
b110100 |
b110100 C"
b110100 t"
b1011 -
1'
#215000
0'
#220000
0P
b0 $
b0 s
b0 w"
b0 &
b0 r
b0 v"
b0 ^
b0 ?"
b0 I"
b0 `
b0 w
b0 B"
0c
0d
b0 Q
b0 /"
b0 Y
b0 +"
b0 H"
b0 j
b0 7"
b0 o
b0 z
b0 {
b0 0"
b0 :"
b0 V
b0 @"
b0 O"
b0 W
b0 4"
b0 A"
b0 N"
b0 X
b0 x
b0 M"
b1000000 [
b1000000 s"
b0 #"
b0 2"
b0 m
b0 ~
b0 &"
b1111 p
b1111 y
b1111 %"
b0 f
b0 }
b0 ("
b0 E"
b0 R
b0 ."
b0 L"
b0 S
b0 -"
b0 K"
b0 \
b0 !"
b0 <"
b0 r"
b0 !
b0 g
b0 $"
b0 u"
b1000000 Z
b1000000 >"
b1000000 D"
b1000000 q"
b111100 "
b111100 u
b111100 |
b111100 C"
b111100 t"
b1100 -
1'
#225000
0'
#230000
b1000100 [
b1000100 s"
b1000100 Z
b1000100 >"
b1000100 D"
b1000100 q"
b1000000 "
b1000000 u
b1000000 |
b1000000 C"
b1000000 t"
b1101 -
1'
#235000
0'
#240000
b1001000 [
b1001000 s"
b1001000 Z
b1001000 >"
b1001000 D"
b1001000 q"
b1000100 "
b1000100 u
b1000100 |
b1000100 C"
b1000100 t"
b1110 -
1'
#245000
0'
#250000
b1001100 [
b1001100 s"
b1001100 Z
b1001100 >"
b1001100 D"
b1001100 q"
b1001000 "
b1001000 u
b1001000 |
b1001000 C"
b1001000 t"
b1111 -
1'
#255000
0'
#260000
b1010000 [
b1010000 s"
b1010000 Z
b1010000 >"
b1010000 D"
b1010000 q"
b1001100 "
b1001100 u
b1001100 |
b1001100 C"
b1001100 t"
b10000 -
1'
#265000
0'
#270000
b1010100 [
b1010100 s"
b1010100 Z
b1010100 >"
b1010100 D"
b1010100 q"
b1010000 "
b1010000 u
b1010000 |
b1010000 C"
b1010000 t"
b10001 -
1'
#275000
0'
#280000
b1011000 [
b1011000 s"
b1011000 Z
b1011000 >"
b1011000 D"
b1011000 q"
b1010100 "
b1010100 u
b1010100 |
b1010100 C"
b1010100 t"
b10010 -
1'
#285000
0'
#290000
b1011100 [
b1011100 s"
b1011100 Z
b1011100 >"
b1011100 D"
b1011100 q"
b1011000 "
b1011000 u
b1011000 |
b1011000 C"
b1011000 t"
b10011 -
1'
#295000
0'
#300000
b1111 #
b1111 t
b1111 x"
b1111 i
b1111 8"
b1111 h
b1111 '"
b1111 1"
b0 p
b0 y
b0 %"
1_
b100011 #"
b100011 2"
b1100000 [
b1100000 s"
b10000000100011 !
b10000000100011 g
b10000000100011 $"
b10000000100011 u"
b1100000 Z
b1100000 >"
b1100000 D"
b1100000 q"
b1011100 "
b1011100 u
b1011100 |
b1011100 C"
b1011100 t"
b10100 -
1'
#305000
0'
#310000
b1 z"
b100 ^
b100 ?"
b100 I"
b100 &
b100 r
b100 v"
b100 o
b100 z
b100 {
b100 0"
b100 :"
b10100000000000000 $
b10100000000000000 s
b10100000000000000 w"
b100 `
b100 w
b100 B"
b10100000000000000 j
b10100000000000000 7"
b100 V
b100 @"
b100 O"
b10100000000000000 W
b10100000000000000 4"
b10100000000000000 A"
b10100000000000000 N"
b1111 h
b1111 '"
b1111 1"
b100 f
b100 }
b100 ("
b100 E"
b1 R
b1 ."
b1 L"
b1100100 [
b1100100 s"
b100000010001000100011 !
b100000010001000100011 g
b100000010001000100011 $"
b100000010001000100011 u"
b1100100 Z
b1100100 >"
b1100100 D"
b1100100 q"
b1100000 "
b1100000 u
b1100000 |
b1100000 C"
b1100000 t"
b10101 -
1'
#315000
0'
#320000
b10 z"
b1000 ^
b1000 ?"
b1000 I"
b1000 &
b1000 r
b1000 v"
b1000 o
b1000 z
b1000 {
b1000 0"
b1000 :"
b10100 $
b10100 s
b10100 w"
b1000 `
b1000 w
b1000 B"
b10100 j
b10100 7"
b1000 V
b1000 @"
b1000 O"
b10100 W
b10100 4"
b10100 A"
b10100 N"
b1111 h
b1111 '"
b1111 1"
b1000 f
b1000 }
b1000 ("
b1000 E"
b10 R
b10 ."
b10 L"
b1101000 [
b1101000 s"
b1000000010010000100011 !
b1000000010010000100011 g
b1000000010010000100011 $"
b1000000010010000100011 u"
b1101000 Z
b1101000 >"
b1101000 D"
b1101000 q"
b1100100 "
b1100100 u
b1100100 |
b1100100 C"
b1100100 t"
b0 %
b0 l
b0 5"
b0 y"
b10110 -
1'
#325000
0'
#330000
b11 z"
b1100 ^
b1100 ?"
b1100 I"
b1100 &
b1100 r
b1100 v"
b1100 o
b1100 z
b1100 {
b1100 0"
b1100 :"
b100000000010000 $
b100000000010000 s
b100000000010000 w"
b1100 `
b1100 w
b1100 B"
b100000000010000 j
b100000000010000 7"
b1100 V
b1100 @"
b1100 O"
b100000000010000 W
b100000000010000 4"
b100000000010000 A"
b100000000010000 N"
b1111 h
b1111 '"
b1111 1"
b1100 f
b1100 }
b1100 ("
b1100 E"
b11 R
b11 ."
b11 L"
b1101100 [
b1101100 s"
b1100000010011000100011 !
b1100000010011000100011 g
b1100000010011000100011 $"
b1100000010011000100011 u"
b1101100 Z
b1101100 >"
b1101100 D"
b1101100 q"
b1101000 "
b1101000 u
b1101000 |
b1101000 C"
b1101000 t"
b10111 -
b0 %
b0 l
b0 5"
b0 y"
1'
#335000
0'
