a3/cpu_tb.vcd
$date
	Thu Oct  7 18:45:57 2021
$end
$version
	Icarus Verilog
$end
$timescale
	1ps
$end
$scope module cpu_tb $end
$var wire 32 ! idata [31:0] $end
$var wire 32 " iaddr [31:0] $end
$var wire 4 # dwe [3:0] $end
$var wire 32 $ dwdata [31:0] $end
$var wire 32 % drdata [31:0] $end
$var wire 32 & daddr [31:0] $end
$var reg 1 ' clk $end
$var reg 32 ( dtmp [31:0] $end
$var reg 32 ) exp_reg [31:0] $end
$var reg 1 * reset $end
$var integer 32 + exp_file [31:0] $end
$var integer 32 , fail [31:0] $end
$var integer 32 - i [31:0] $end
$var integer 32 . log_file [31:0] $end
$var integer 32 / s [31:0] $end
$scope module u1 $end
$var wire 1 ' clk $end
$var wire 1 * reset $end
$var wire 32 0 x9 [31:0] $end
$var wire 32 1 x8 [31:0] $end
$var wire 32 2 x7 [31:0] $end
$var wire 32 3 x6 [31:0] $end
$var wire 32 4 x5 [31:0] $end
$var wire 32 5 x4 [31:0] $end
$var wire 32 6 x31 [31:0] $end
$var wire 32 7 x30 [31:0] $end
$var wire 32 8 x3 [31:0] $end
$var wire 32 9 x29 [31:0] $end
$var wire 32 : x28 [31:0] $end
$var wire 32 ; x27 [31:0] $end
$var wire 32 < x26 [31:0] $end
$var wire 32 = x25 [31:0] $end
$var wire 32 > x24 [31:0] $end
$var wire 32 ? x23 [31:0] $end
$var wire 32 @ x22 [31:0] $end
$var wire 32 A x21 [31:0] $end
$var wire 32 B x20 [31:0] $end
$var wire 32 C x2 [31:0] $end
$var wire 32 D x19 [31:0] $end
$var wire 32 E x18 [31:0] $end
$var wire 32 F x17 [31:0] $end
$var wire 32 G x16 [31:0] $end
$var wire 32 H x15 [31:0] $end
$var wire 32 I x14 [31:0] $end
$var wire 32 J x13 [31:0] $end
$var wire 32 K x12 [31:0] $end
$var wire 32 L x11 [31:0] $end
$var wire 32 M x10 [31:0] $end
$var wire 32 N x1 [31:0] $end
$var wire 32 O x0 [31:0] $end
$var wire 5 P shamt_wire [4:0] $end
$var wire 5 Q rs2_wire [4:0] $end
$var wire 5 R rs1_wire [4:0] $end
$var wire 4 S rf_we_wire [3:0] $end
$var wire 4 T rf_we_checked_wire [3:0] $end
$var wire 32 U rf_op3_wire [31:0] $end
$var wire 32 V rf_op2_wire [31:0] $end
$var wire 32 W rf_op1_wire [31:0] $end
$var wire 5 X rd_wire [4:0] $end
$var wire 1 Y mux2_sel_wire $end
$var wire 32 Z mux2_output_wire [31:0] $end
$var wire 1 [ mux1_sel_wire $end
$var wire 32 \ mux1_output_wire [31:0] $end
$var wire 1 ] l_unsign_flag_wire $end
$var wire 6 ^ itype_flag_wire [5:0] $end
$var wire 32 _ imm20_ext_wire [31:0] $end
$var wire 32 ` imm12_ext_wire [31:0] $end
$var wire 32 a idata [31:0] $end
$var wire 4 b dwe_wire [3:0] $end
$var wire 4 c dwe_checked_wire [3:0] $end
$var wire 32 d dwdata_checked_wire [31:0] $end
$var wire 32 e drdata_checked_wire [31:0] $end
$var wire 32 f drdata [31:0] $end
$var wire 32 g alu_out_wire [31:0] $end
$var wire 4 h alu_op_wire [3:0] $end
$var reg 1 i clkreset_flag $end
$var reg 32 j daddr [31:0] $end
$var reg 32 k dwdata [31:0] $end
$var reg 4 l dwe [3:0] $end
$var reg 32 m iaddr [31:0] $end
$var integer 32 n count [31:0] $end
$scope module ALU $end
$var wire 32 o operand2 [31:0] $end
$var wire 32 p operand1 [31:0] $end
$var wire 4 q alu_op [3:0] $end
$var reg 32 r alu_out [31:0] $end
$upscope $end
$scope module CONT $end
$var wire 1 * reset $end
$var wire 7 s opcode [6:0] $end
$var wire 32 t idata [31:0] $end
$var reg 4 u alu_op [3:0] $end
$var reg 4 v dwe [3:0] $end
$var reg 32 w imm12_ext [31:0] $end
$var reg 32 x imm20_ext [31:0] $end
$var reg 6 y itype_flag [5:0] $end
$var reg 1 ] l_unsign_flag $end
$var reg 1 [ mux1_sel $end
$var reg 1 Y mux2_sel $end
$var reg 5 z rd [4:0] $end
$var reg 4 { rf_we [3:0] $end
$var reg 5 | rs1 [4:0] $end
$var reg 5 } rs2 [4:0] $end
$var reg 5 ~ shamt [4:0] $end
$upscope $end
$scope module Dcheck $end
$var wire 32 !" daddr [31:0] $end
$var wire 4 "" dwe [3:0] $end
$var wire 1 #" mux2_sel $end
$var wire 7 $" opcode [6:0] $end
$var wire 4 %" rf_we [3:0] $end
$var wire 32 &" dwdata [31:0] $end
$var wire 32 '" drdata [31:0] $end
$var reg 32 (" drdata_checked [31:0] $end
$var reg 32 )" dwdata_checked [31:0] $end
$var reg 4 *" dwe_checked [3:0] $end
$var reg 4 +" rf_we_checked [3:0] $end
$upscope $end
$scope module MUX1 $end
$var wire 1 [ mux_sel $end
$var wire 32 ," input1 [31:0] $end
$var wire 32 -" input0 [31:0] $end
$var reg 32 ." mux_output [31:0] $end
$upscope $end
$scope module MUX2 $end
$var wire 32 /" input0 [31:0] $end
$var wire 32 0" input1 [31:0] $end
$var wire 1 Y mux_sel $end
$var reg 32 1" mux_output [31:0] $end
$upscope $end
$scope module RF $end
$var wire 1 ' clk $end
$var wire 32 2" imm12_ext [31:0] $end
$var wire 32 3" imm20_ext [31:0] $end
$var wire 6 4" itype_flag [5:0] $end
$var wire 1 ] l_unsign_flag $end
$var wire 5 5" rd [4:0] $end
$var wire 1 * reset $end
$var wire 32 6" rf_wdata [31:0] $end
$var wire 4 7" rf_we [3:0] $end
$var wire 5 8" rs1 [4:0] $end
$var wire 5 9" rs2 [4:0] $end
$var reg 32 :" rf_op1 [31:0] $end
$var reg 32 ;" rf_op2 [31:0] $end
$var reg 32 <" rf_op3 [31:0] $end
$var reg 32 =" x0 [31:0] $end
$var reg 32 >" x1 [31:0] $end
$var reg 32 ?" x10 [31:0] $end
$var reg 32 @" x11 [31:0] $end
$var reg 32 A" x12 [31:0] $end
$var reg 32 B" x13 [31:0] $end
$var reg 32 C" x14 [31:0] $end
$var reg 32 D" x15 [31:0] $end
$var reg 32 E" x16 [31:0] $end
$var reg 32 F" x17 [31:0] $end
$var reg 32 G" x18 [31:0] $end
$var reg 32 H" x19 [31:0] $end
$var reg 32 I" x2 [31:0] $end
$var reg 32 J" x20 [31:0] $end
$var reg 32 K" x21 [31:0] $end
$var reg 32 L" x22 [31:0] $end
$var reg 32 M" x23 [31:0] $end
$var reg 32 N" x24 [31:0] $end
$var reg 32 O" x25 [31:0] $end
$var reg 32 P" x26 [31:0] $end
$var reg 32 Q" x27 [31:0] $end
$var reg 32 R" x28 [31:0] $end
$var reg 32 S" x29 [31:0] $end
$var reg 32 T" x3 [31:0] $end
$var reg 32 U" x30 [31:0] $end
$var reg 32 V" x31 [31:0] $end
$var reg 32 W" x4 [31:0] $end
$var reg 32 X" x5 [31:0] $end
$var reg 32 Y" x6 [31:0] $end
$var reg 32 Z" x7 [31:0] $end
$var reg 32 [" x8 [31:0] $end
$var reg 32 \" x9 [31:0] $end
$var integer 32 ]" i [31:0] $end
$upscope $end
$upscope $end
$scope module u2 $end
$var wire 32 ^" iaddr [31:0] $end
$var wire 32 _" idata [31:0] $end
$upscope $end
$scope module u3 $end
$var wire 1 ' clk $end
$var wire 32 `" daddr [31:0] $end
$var wire 32 a" dwdata [31:0] $end
$var wire 4 b" dwe [3:0] $end
$var wire 32 c" drdata [31:0] $end
$var wire 30 d" a [29:0] $end
$upscope $end
$upscope $end
$enddefinitions $end
#0
$dumpvars
b0 d"
b0 c"
b0 b"
b0 a"
b0 `"
b10000001100001110000010010011 _"
b0 ^"
b100000 ]"
b0 \"
b0 ["
b0 Z"
b0 Y"
b0 X"
b0 W"
b0 V"
b0 U"
b0 T"
b0 S"
b0 R"
b0 Q"
b0 P"
b0 O"
b0 N"
b0 M"
b0 L"
b0 K"
b0 J"
b0 I"
b0 H"
b0 G"
b0 F"
b0 E"
b0 D"
b0 C"
b0 B"
b0 A"
b0 @"
b0 ?"
b0 >"
b0 ="
bx <"
bx ;"
bx :"
b0 9"
b0 8"
b0 7"
b0 6"
b0 5"
b0 4"
b0 3"
b0 2"
b0 1"
b0 0"
b0 /"
bx ."
bx -"
bx ,"
b0 +"
b0 *"
bx )"
b0 ("
b0 '"
bx &"
b0 %"
b10011 $"
z#"
b0 ""
b0 !"
b0 ~
b0 }
b0 |
b0 {
b0 z
b0 y
b0 x
b0 w
b0 v
b1111 u
b10000001100001110000010010011 t
b10011 s
b0 r
b1111 q
bx p
bx o
b0 n
b0 m
b0 l
b0 k
b0 j
1i
b1111 h
b0 g
b0 f
b0 e
bx d
b0 c
b0 b
b10000001100001110000010010011 a
b0 `
b0 _
b0 ^
0]
bx \
0[
b0 Z
0Y
b0 X
bx W
bx V
bx U
b0 T
b0 S
b0 R
b0 Q
b0 P
b0 O
b0 N
b0 M
b0 L
b0 K
b0 J
b0 I
b0 H
b0 G
b0 F
b0 E
b0 D
b0 C
b0 B
b0 A
b0 @
b0 ?
b0 >
b0 =
b0 <
b0 ;
b0 :
b0 9
b0 8
b0 7
b0 6
b0 5
b0 4
b0 3
b0 2
b0 1
b0 0
bx /
bx .
bx -
bx ,
bx +
1*
bx )
bx (
1'
b0 &
b0 %
b0 $
b0 #
b0 "
b10000001100001110000010010011 !
$end
#5000
0'
#10000
1'
#15000
0'
#20000
1'
#25000
0'
#30000
1'
#35000
0'
#40000
1'
#45000
0'
#50000
1'
#55000
0'
#60000
1'
#65000
0'
#70000
1'
#75000
0'
#80000
1'
#85000
0'
#90000
1'
#95000
0'
#100000
0i
b0 e
b0 ("
b0 0"
b0 %
b0 f
b0 '"
b0 c"
b1000000 d"
b100000011 Z
b100000011 1"
b100000011 6"
b100000011 &
b100000011 j
b100000011 `"
b1111 T
b1111 +"
b1111 7"
b0 d
b0 )"
b100000011 \
b100000011 o
b100000011 ."
b100000011 g
b100000011 r
b100000011 !"
b100000011 /"
b0 -
b1111 S
b1111 {
b1111 %"
b100000011 `
b100000011 w
b100000011 2"
b1000 h
b1000 q
b1000 u
1[
b10 ^
b10 y
b10 4"
b11 Q
b11 }
b11 9"
b1 X
b1 z
b1 5"
b1 R
b1 |
b1 8"
b100000011 U
b100000011 ,"
b100000011 <"
b0 V
b0 &"
b0 -"
b0 ;"
b0 W
b0 p
b0 :"
1'
b10000000000000000000000000000100 +
b10000000000000000000000000000011 .
0*
#105000
0'
#110000
b11 #
b11 l
b11 b"
b0 d"
b11 c
b11 *"
b0 Z
b0 1"
b0 6"
b0 &
b0 j
b0 `"
b0 g
b0 r
b0 !"
b0 /"
b0 \
b0 o
b0 ."
b0 U
b0 ,"
b0 <"
b100000011 $
b100000011 k
b100000011 a"
b11 b
b11 v
b11 ""
b100 ^
b100 y
b100 4"
b0 h
b0 q
b0 u
b0 `
b0 w
b0 2"
b0 T
b0 +"
b0 7"
b100000011 d
b100000011 )"
b100000011 V
b100000011 &"
b100000011 -"
b100000011 ;"
b100011 s
b100011 $"
b0 S
b0 {
b0 %"
b1 Q
b1 }
b1 9"
b0 X
b0 z
b0 5"
b0 R
b0 |
b0 8"
b100000001000000100011 !
b100000001000000100011 a
b100000001000000100011 t
b100000001000000100011 _"
b0 W
b0 p
b0 :"
b100000011 N
b100000011 >"
b100 "
b100 m
b100 ^"
b1 -
1'
#115000
0'
#120000
b10 d"
b1000 Z
b1000 1"
b1000 6"
b1000 &
b1000 j
b1000 `"
b1000 g
b1000 r
b1000 !"
b1000 /"
b1 #
b1 l
b1 b"
b1000 \
b1000 o
b1000 ."
b1 c
b1 *"
b1000 U
b1000 ,"
b1000 <"
b1 b
b1 v
b1 ""
b1000 `
b1000 w
b1000 2"
b100000000010000100011 !
b100000000010000100011 a
b100000000010000100011 t
b100000000010000100011 _"
b1000 "
b1000 m
b1000 ^"
b0 %
b0 f
b0 '"
b0 c"
b10 -
1'
#125000
0'
#130000
b0 d"
b0 #
b0 l
b0 b"
b0 &
b0 j
b0 `"
b0 g
b0 r
b0 !"
b0 /"
b100000011 Z
b100000011 1"
b100000011 6"
b0 c
b0 *"
b100000011 e
b100000011 ("
b100000011 0"
b1 T
b1 +"
b1 7"
b0 $
b0 k
b0 a"
b0 \
b0 o
b0 ."
b1 S
b1 {
b1 %"
1Y
b10 ^
b10 y
b10 4"
b10 X
b10 z
b10 5"
b0 d
b0 )"
b0 U
b0 ,"
b0 <"
b0 V
b0 &"
b0 -"
b0 ;"
b11 s
b11 $"
b0 b
b0 v
b0 ""
b0 `
b0 w
b0 2"
b0 Q
b0 }
b0 9"
b100000011 !
b100000011 a
b100000011 t
b100000011 _"
b1100 "
b1100 m
b1100 ^"
b11 -
b100000011 %
b100000011 f
b100000011 '"
b100000011 c"
1'
#135000
0'
#140000
b11 Z
b11 1"
b11 6"
b11 e
b11 ("
b11 0"
b11 %
b11 f
b11 '"
b11 c"
b10 d"
b1000 &
b1000 j
b1000 `"
b1000 g
b1000 r
b1000 !"
b1000 /"
b1000 \
b1000 o
b1000 ."
b1111 T
b1111 +"
b1111 7"
b1000 U
b1000 ,"
b1000 <"
b1111 S
b1111 {
b1111 %"
b1000 `
b1000 w
b1000 2"
b100 X
b100 z
b100 5"
b11 C
b11 I"
b100000000010001000000011 !
b100000000010001000000011 a
b100000000010001000000011 t
b100000000010001000000011 _"
b10000 "
b10000 m
b10000 ^"
b100 -
1'
#145000
0'
#150000
b100000011 e
b100000011 ("
b100000011 0"
b100000011 %
b100000011 f
b100000011 '"
b100000011 c"
b0 d"
b11 $
b11 k
b11 a"
b0 &
b0 j
b0 `"
b11 d
b11 )"
b0 Z
b0 1"
b0 6"
b11 V
b11 &"
b11 -"
b11 ;"
b11 \
b11 o
b11 ."
b0 g
b0 r
b0 !"
b0 /"
b1 h
b1 q
b1 u
0Y
0[
b100 Q
b100 }
b100 9"
b1 ^
b1 y
b1 4"
b1111 T
b1111 +"
b1111 7"
b10000000100 U
b10000000100 ,"
b10000000100 <"
b11 W
b11 p
b11 :"
b110011 s
b110011 $"
b1111 S
b1111 {
b1111 %"
b10000000100 `
b10000000100 w
b10000000100 2"
b11 X
b11 z
b11 5"
b10 R
b10 |
b10 8"
b1000000010000010000000110110011 !
b1000000010000010000000110110011 a
b1000000010000010000000110110011 t
b1000000010000010000000110110011 _"
b11 5
b11 W"
b10100 "
b10100 m
b10100 ^"
b101 -
1'
#155000
0'
#160000
b1111 #
b1111 l
b1111 b"
b11 %
b11 f
b11 '"
b11 c"
b10 d"
b1111 c
b1111 *"
b1000 U
b1000 ,"
b1000 <"
b0 e
b0 ("
b0 0"
b0 T
b0 +"
b0 7"
b1000 Z
b1000 1"
b1000 6"
b100000011 $
b100000011 k
b100000011 a"
b1000 &
b1000 j
b1000 `"
b1000 \
b1000 o
b1000 ."
b1111 b
b1111 v
b1111 ""
b100 ^
b100 y
b100 4"
1[
b1000 `
b1000 w
b1000 2"
b1000 g
b1000 r
b1000 !"
b1000 /"
b100000011 d
b100000011 )"
b100000011 V
b100000011 &"
b100000011 -"
b100000011 ;"
b0 W
b0 p
b0 :"
b100011 s
b100011 $"
b0 h
b0 q
b0 u
b0 S
b0 {
b0 %"
b1000 X
b1000 z
b1000 5"
b1 Q
b1 }
b1 9"
b0 R
b0 |
b0 8"
b100000010010000100011 !
b100000010010000100011 a
b100000010010000100011 t
b100000010010000100011 _"
b11000 "
b11000 m
b11000 ^"
b110 -
1'
#165000
0'
#170000
b0 d"
b0 &
b0 j
b0 `"
b0 g
b0 r
b0 !"
b0 /"
b100000011 Z
b100000011 1"
b100000011 6"
b100000011 e
b100000011 ("
b100000011 0"
b11 T
b11 +"
b11 7"
b0 #
b0 l
b0 b"
b0 $
b0 k
b0 a"
b0 \
b0 o
b0 ."
b11 S
b11 {
b11 %"
1Y
b10 ^
b10 y
b10 4"
b10 X
b10 z
b10 5"
b0 d
b0 )"
b0 c
b0 *"
b0 U
b0 ,"
b0 <"
b0 V
b0 &"
b0 -"
b0 ;"
b11 s
b11 $"
b0 b
b0 v
b0 ""
b0 `
b0 w
b0 2"
b0 Q
b0 }
b0 9"
b1000100000011 !
b1000100000011 a
b1000100000011 t
b1000100000011 _"
b11100 "
b11100 m
b11100 ^"
b111 -
b100000011 %
b100000011 f
b100000011 '"
b100000011 c"
1'
#175000
0'
#180000
b10 d"
b1000 &
b1000 j
b1000 `"
b1000 g
b1000 r
b1000 !"
b1000 /"
b1000 \
b1000 o
b1000 ."
b1111 T
b1111 +"
b1111 7"
b1000 U
b1000 ,"
b1000 <"
b1111 S
b1111 {
b1111 %"
b1000 `
b1000 w
b1000 2"
b100 X
b100 z
b100 5"
b100000011 C
b100000011 I"
b100000000010001000000011 !
b100000000010001000000011 a
b100000000010001000000011 t
b100000000010001000000011 _"
b100000 "
b100000 m
b100000 ^"
b1000 -
1'
#185000
0'
#190000
b100000011 e
b100000011 ("
b100000011 0"
b100000011 %
b100000011 f
b100000011 '"
b100000011 c"
b0 d"
b100000011 $
b100000011 k
b100000011 a"
b0 &
b0 j
b0 `"
b100000011 d
b100000011 )"
b0 Z
b0 1"
b0 6"
b100000011 V
b100000011 &"
b100000011 -"
b100000011 ;"
b100000011 \
b100000011 o
b100000011 ."
b0 g
b0 r
b0 !"
b0 /"
b1 h
b1 q
b1 u
0Y
0[
b100 Q
b100 }
b100 9"
b1 ^
b1 y
b1 4"
b1111 T
b1111 +"
b1111 7"
b10000000100 U
b10000000100 ,"
b10000000100 <"
b100000011 W
b100000011 p
b100000011 :"
b110011 s
b110011 $"
b1111 S
b1111 {
b1111 %"
b10000000100 `
b10000000100 w
b10000000100 2"
b101 X
b101 z
b101 5"
b10 R
b10 |
b10 8"
b1000000010000010000001010110011 !
b1000000010000010000001010110011 a
b1000000010000010000001010110011 t
b1000000010000010000001010110011 _"
b100000011 5
b100000011 W"
b100100 "
b100100 m
b100100 ^"
b1001 -
1'
#195000
0'
#200000
b100000011 e
b100000011 ("
b100000011 0"
b100000011 %
b100000011 f
b100000011 '"
b100000011 c"
b0 d"
b0 Z
b0 1"
b0 6"
b0 $
b0 k
b0 a"
b0 &
b0 j
b0 `"
b0 \
b0 o
b0 ."
b0 g
b0 r
b0 !"
b0 /"
b0 d
b0 )"
b0 V
b0 &"
b0 -"
b0 ;"
b0 W
b0 p
b0 :"
b0 h
b0 q
b0 u
b1111 S
b1111 {
b1111 %"
b1010 X
b1010 z
b1010 5"
b101 Q
b101 }
b101 9"
b11 R
b11 |
b11 8"
b10100011000010100110011 !
b10100011000010100110011 a
b10100011000010100110011 t
b10100011000010100110011 _"
b101000 "
b101000 m
b101000 ^"
b1010 -
1'
#205000
0'
#210000
b0 T
b0 +"
b0 7"
b0 s
b0 $"
b0 S
b0 {
b0 %"
b0 X
b0 z
b0 5"
b0 Q
b0 }
b0 9"
b0 R
b0 |
b0 8"
b0 !
b0 a
b0 t
b0 _"
b101100 "
b101100 m
b101100 ^"
b1011 -
1'
#215000
0'
#220000
b110000 "
b110000 m
b110000 ^"
b1100 -
1'
#225000
0'
#230000
b110100 "
b110100 m
b110100 ^"
b1101 -
1'
#235000
0'
#240000
b111000 "
b111000 m
b111000 ^"
b1110 -
1'
#245000
0'
#250000
b111100 "
b111100 m
b111100 ^"
b1111 -
1'
#255000
0'
#260000
b1000000 "
b1000000 m
b1000000 ^"
b10000 -
1'
#265000
0'
#270000
b1000100 "
b1000100 m
b1000100 ^"
b10001 -
1'
#275000
0'
#280000
b1111 #
b1111 l
b1111 b"
b0 e
b0 ("
b0 0"
b1111 c
b1111 *"
b0 U
b0 ,"
b0 <"
b1111 b
b1111 v
b1111 ""
b100 ^
b100 y
b100 4"
1[
b0 `
b0 w
b0 2"
b100011 s
b100011 $"
b10000000100011 !
b10000000100011 a
b10000000100011 t
b10000000100011 _"
b1001000 "
b1001000 m
b1001000 ^"
b10010 -
1'
#285000
0'
#290000
b1 d"
b100 Z
b100 1"
b100 6"
b100 &
b100 j
b100 `"
b100 g
b100 r
b100 !"
b100 /"
b100000011 $
b100000011 k
b100000011 a"
b100 \
b100 o
b100 ."
b100000011 d
b100000011 )"
b100 U
b100 ,"
b100 <"
b100000011 V
b100000011 &"
b100000011 -"
b100000011 ;"
b1111 b
b1111 v
b1111 ""
b100 `
b100 w
b100 2"
b1 Q
b1 }
b1 9"
b100000010001000100011 !
b100000010001000100011 a
b100000010001000100011 t
b100000010001000100011 _"
b1001100 "
b1001100 m
b1001100 ^"
b10011 -
b0 %
b0 f
b0 '"
b0 c"
1'
#295000
0'
#300000
b10 d"
b1000 Z
b1000 1"
b1000 6"
b1000 &
b1000 j
b1000 `"
b1000 g
b1000 r
b1000 !"
b1000 /"
b1000 \
b1000 o
b1000 ."
b1000 U
b1000 ,"
b1000 <"
b1111 b
b1111 v
b1111 ""
b1000 `
b1000 w
b1000 2"
b10 Q
b10 }
b10 9"
b1000000010010000100011 !
b1000000010010000100011 a
b1000000010010000100011 t
b1000000010010000100011 _"
b1010000 "
b1010000 m
b1010000 ^"
b100000011 %
b100000011 f
b100000011 '"
b100000011 c"
b10100 -
1'
#305000
0'
#310000
b0 %
b0 f
b0 '"
b0 c"
b11 d"
b1100 Z
b1100 1"
b1100 6"
b1100 &
b1100 j
b1100 `"
b1100 g
b1100 r
b1100 !"
b1100 /"
b0 $
b0 k
b0 a"
b1100 \
b1100 o
b1100 ."
b0 d
b0 )"
b1100 U
b1100 ,"
b1100 <"
b0 V
b0 &"
b0 -"
b0 ;"
b1111 b
b1111 v
b1111 ""
b1100 `
b1100 w
b1100 2"
b11 Q
b11 }
b11 9"
b1100000010011000100011 !
b1100000010011000100011 a
b1100000010011000100011 t
b1100000010011000100011 _"
b1010100 "
b1010100 m
b1010100 ^"
b10101 -
1'
#315000
0'
#320000
b100 d"
b10000 Z
b10000 1"
b10000 6"
b10000 &
b10000 j
b10000 `"
b10000 g
b10000 r
b10000 !"
b10000 /"
b100000011 $
b100000011 k
b100000011 a"
b10000 \
b10000 o
b10000 ."
b100000011 d
b100000011 )"
b10000 U
b10000 ,"
b10000 <"
b100000011 V
b100000011 &"
b100000011 -"
b100000011 ;"
b1111 b
b1111 v
b1111 ""
b10000 `
b10000 w
b10000 2"
b100 Q
b100 }
b100 9"
b10000000010100000100011 !
b10000000010100000100011 a
b10000000010100000100011 t
b10000000010100000100011 _"
b1011000 "
b1011000 m
b1011000 ^"
b10110 -
1'
#325000
0'
#330000
b101 d"
b10100 Z
b10100 1"
b10100 6"
b10100 &
b10100 j
b10100 `"
b10100 g
b10100 r
b10100 !"
b10100 /"
b0 $
b0 k
b0 a"
b10100 \
b10100 o
b10100 ."
b0 d
b0 )"
b10100 U
b10100 ,"
b10100 <"
b0 V
b0 &"
b0 -"
b0 ;"
b1111 b
b1111 v
b1111 ""
b10100 `
b10100 w
b10100 2"
b101 Q
b101 }
b101 9"
b10100000010101000100011 !
b10100000010101000100011 a
b10100000010101000100011 t
b10100000010101000100011 _"
b1011100 "
b1011100 m
b1011100 ^"
b10111 -
b0 %
b0 f
b0 '"
b0 c"
1'
#335000
0'
#340000
b110 d"
b11000 Z
b11000 1"
b11000 6"
b11000 &
b11000 j
b11000 `"
b11000 g
b11000 r
b11000 !"
b11000 /"
b11000 \
b11000 o
b11000 ."
b11000 U
b11000 ,"
b11000 <"
b1111 b
b1111 v
b1111 ""
b11000 `
b11000 w
b11000 2"
b110 Q
b110 }
b110 9"
b11000000010110000100011 !
b11000000010110000100011 a
b11000000010110000100011 t
b11000000010110000100011 _"
b1100000 "
b1100000 m
b1100000 ^"
b11000 -
1'
#345000
0'
#350000
b111 d"
b11100 Z
b11100 1"
b11100 6"
b11100 &
b11100 j
b11100 `"
b11100 g
b11100 r
b11100 !"
b11100 /"
b11100 \
b11100 o
b11100 ."
b11100 U
b11100 ,"
b11100 <"
b1111 b
b1111 v
b1111 ""
b11100 `
b11100 w
b11100 2"
b111 Q
b111 }
b111 9"
b11100000010111000100011 !
b11100000010111000100011 a
b11100000010111000100011 t
b11100000010111000100011 _"
b1100100 "
b1100100 m
b1100100 ^"
b11001 -
1'
#355000
0'
#360000
b1000 d"
b100000 Z
b100000 1"
b100000 6"
b100000 &
b100000 j
b100000 `"
b100000 g
b100000 r
b100000 !"
b100000 /"
b100000 \
b100000 o
b100000 ."
b100000 U
b100000 ,"
b100000 <"
b1111 b
b1111 v
b1111 ""
b100000 `
b100000 w
b100000 2"
b1000 Q
b1000 }
b1000 9"
b10100000000010000000100011 !
b10100000000010000000100011 a
b10100000000010000000100011 t
b10100000000010000000100011 _"
b1101000 "
b1101000 m
b1101000 ^"
b11010 -
1'
#365000
0'
#370000
b1001 d"
b100100 Z
b100100 1"
b100100 6"
b100100 &
b100100 j
b100100 `"
b100100 g
b100100 r
b100100 !"
b100100 /"
b100100 \
b100100 o
b100100 ."
b100100 U
b100100 ,"
b100100 <"
b1111 b
b1111 v
b1111 ""
b100100 `
b100100 w
b100100 2"
b1001 Q
b1001 }
b1001 9"
b10100100000010001000100011 !
b10100100000010001000100011 a
b10100100000010001000100011 t
b10100100000010001000100011 _"
b1101100 "
b1101100 m
b1101100 ^"
b11011 -
1'
#375000
0'
#380000
b1010 d"
b101000 Z
b101000 1"
b101000 6"
b101000 &
b101000 j
b101000 `"
b101000 g
b101000 r
b101000 !"
b101000 /"
b101000 \
b101000 o
b101000 ."
b101000 U
b101000 ,"
b101000 <"
b1111 b
b1111 v
b1111 ""
b101000 `
b101000 w
b101000 2"
b1010 Q
b1010 }
b1010 9"
b10101000000010010000100011 !
b10101000000010010000100011 a
b10101000000010010000100011 t
b10101000000010010000100011 _"
b1110000 "
b1110000 m
b1110000 ^"
b11100 -
1'
#385000
0'
#390000
b1011 d"
b101100 Z
b101100 1"
b101100 6"
b101100 &
b101100 j
b101100 `"
b101100 g
b101100 r
b101100 !"
b101100 /"
b101100 \
b101100 o
b101100 ."
b101100 U
b101100 ,"
b101100 <"
b1111 b
b1111 v
b1111 ""
b101100 `
b101100 w
b101100 2"
b1011 Q
b1011 }
b1011 9"
b10101100000010011000100011 !
b10101100000010011000100011 a
b10101100000010011000100011 t
b10101100000010011000100011 _"
b1110100 "
b1110100 m
b1110100 ^"
b11101 -
1'
#395000
0'
#400000
b1100 d"
b110000 Z
b110000 1"
b110000 6"
b110000 &
b110000 j
b110000 `"
b110000 g
b110000 r
b110000 !"
b110000 /"
b110000 \
b110000 o
b110000 ."
b110000 U
b110000 ,"
b110000 <"
b1111 b
b1111 v
b1111 ""
b110000 `
b110000 w
b110000 2"
b1100 Q
b1100 }
b1100 9"
b10110000000010100000100011 !
b10110000000010100000100011 a
b10110000000010100000100011 t
b10110000000010100000100011 _"
b1111000 "
b1111000 m
b1111000 ^"
b11110 -
1'
#405000
0'
#410000
b1101 d"
b110100 Z
b110100 1"
b110100 6"
b110100 &
b110100 j
b110100 `"
b110100 g
b110100 r
b110100 !"
b110100 /"
b110100 \
b110100 o
b110100 ."
b110100 U
b110100 ,"
b110100 <"
b1111 b
b1111 v
b1111 ""
b110100 `
b110100 w
b110100 2"
b1101 Q
b1101 }
b1101 9"
b10110100000010101000100011 !
b10110100000010101000100011 a
b10110100000010101000100011 t
b10110100000010101000100011 _"
b1111100 "
b1111100 m
b1111100 ^"
b11111 -
1'
#415000
0'
#420000
b1110 d"
b111000 Z
b111000 1"
b111000 6"
b111000 &
b111000 j
b111000 `"
b111000 g
b111000 r
b111000 !"
b111000 /"
b111000 \
b111000 o
b111000 ."
b111000 U
b111000 ,"
b111000 <"
b1111 b
b1111 v
b1111 ""
b111000 `
b111000 w
b111000 2"
b1110 Q
b1110 }
b1110 9"
b10111000000010110000100011 !
b10111000000010110000100011 a
b10111000000010110000100011 t
b10111000000010110000100011 _"
b10000000 "
b10000000 m
b10000000 ^"
b100000 -
1'
#425000
0'
#430000
b1111 d"
b111100 Z
b111100 1"
b111100 6"
b111100 &
b111100 j
b111100 `"
b111100 g
b111100 r
b111100 !"
b111100 /"
b111100 \
b111100 o
b111100 ."
b111100 U
b111100 ,"
b111100 <"
b1111 b
b1111 v
b1111 ""
b111100 `
b111100 w
b111100 2"
b1111 Q
b1111 }
b1111 9"
b10111100000010111000100011 !
b10111100000010111000100011 a
b10111100000010111000100011 t
b10111100000010111000100011 _"
b10000100 "
b10000100 m
b10000100 ^"
b100001 -
1'
#435000
0'
#440000
b10000 d"
b1000000 Z
b1000000 1"
b1000000 6"
b1000000 &
b1000000 j
b1000000 `"
b1000000 g
b1000000 r
b1000000 !"
b1000000 /"
b1000000 \
b1000000 o
b1000000 ."
b1000000 U
b1000000 ,"
b1000000 <"
b1111 b
b1111 v
b1111 ""
b1000000 `
b1000000 w
b1000000 2"
b10000 Q
b10000 }
b10000 9"
b101000000000010000000100011 !
b101000000000010000000100011 a
b101000000000010000000100011 t
b101000000000010000000100011 _"
b10001000 "
b10001000 m
b10001000 ^"
b100010 -
1'
#445000
0'
#450000
b10001 d"
b1000100 Z
b1000100 1"
b1000100 6"
b1000100 &
b1000100 j
b1000100 `"
b1000100 g
b1000100 r
b1000100 !"
b1000100 /"
b1000100 \
b1000100 o
b1000100 ."
b1000100 U
b1000100 ,"
b1000100 <"
b1111 b
b1111 v
b1111 ""
b1000100 `
b1000100 w
b1000100 2"
b10001 Q
b10001 }
b10001 9"
b101000100000010001000100011 !
b101000100000010001000100011 a
b101000100000010001000100011 t
b101000100000010001000100011 _"
b10001100 "
b10001100 m
b10001100 ^"
b100011 -
1'
#455000
0'
